# 5s start
-5.0 4.0 4.0 4.0 -5.0 -5.0 -5.0 -5.0 -5.0 -5.0 -5.0 -5.0 -5.0 8.0 4.0 4.0 4.0 -4.0 3.0 3.0 3.0 -4.0 -4.0 -4.0 -4.0 4.0 4.0 -5.0 -5.0 -5.0 -5.0 -5.0 -5.0 -5.0 4.0 -5.0 -4.0 -4.0 3.0 -5.0 4.0 4.0 4.0 -5.0 -5.0 -5.0 -5.0 112.0 2.0 2.0 2.0 -3.0 -3.0 2.0 13.0 2.0 2.0 2.0 -122.0 -118.0 -121.0 -118.0 -118.0 121.0 10.0 121.0 0.0 -6.0 -6.0 -6.0 5.0 5.0 5.0 5.0 5.0 4.0 5.0 5.0 5.0 -6.0 -4.0 3.0 1.0 3.0 3.0 3.0 3.0 3.0 -3.0 -3.0 2.0 2.0 2.0 2.0 -10.0 -10.0 -11.0 -5.0 -5.0 -5.0 -10.0 6.0 6.0 6.0 6.0 -5.0 -5.0 -6.0 10.0 4.0 8.0 11.0 11.0 11.0 -5.0 4.0 1.0 4.0 -5.0 -5.0 -5.0 -5.0 4.0 4.0 4.0 4.0 1.0 4.0 -5.0 -1.0 8.0 8.0 -8.0 -4.0 -8.0 -8.0 7.0 -5.0 -5.0 -5.0 4.0 4.0 4.0 4.0 4.0 4.0 4.0 -3.0 2.0 2.0 2.0 -3.0 -3.0 -3.0 -3.0 9.0 -10.0 -5.0 4.0 4.0 4.0 4.0 4.0 4.0 -5.0 -5.0 -5.0 4.0 4.0 4.0 4.0 4.0 4.0 4.0 4.0 4.0 -5.0 2.0 2.0 2.0 -3.0 -3.0 -3.0 -3.0 -3.0 -3.0 -1.0 -1.0 -1.0 -1.0 -1.0 -1.0 0.0 0.0 0.0 -3.0 -3.0 -3.0 2.0 2.0 2.0 2.0 2.0 
# 5S stop
1.0 -2.0 -2.0 -2.0 1.0 1.0 1.0 1.0 -1.0 -1.0 -1.0 -1.0 -1.0 -2.0 0.0 0.0 0.0 1.0 -2.0 -2.0 -2.0 1.0 1.0 1.0 1.0 -1.0 -1.0 0.0 0.0 0.0 0.0 0.0 0.0 0.0 -1.0 0.0 0.0 0.0 -1.0 1.0 -2.0 -2.0 -2.0 1.0 1.0 1.0 1.0 -116.0 0.0 0.0 0.0 -1.0 -1.0 0.0 -8.0 0.0 0.0 0.0 6.0 5.0 6.0 6.0 5.0 -7.0 -7.0 -7.0 -1.0 1.0 1.0 1.0 -2.0 -2.0 -2.0 -2.0 -2.0 -1.0 -2.0 -2.0 -2.0 1.0 1.0 -2.0 -2.0 -2.0 -2.0 -2.0 -2.0 -2.0 -3.0 -3.0 2.0 2.0 2.0 2.0 8.0 8.0 7.0 2.0 2.0 2.0 8.0 -1.0 -1.0 -1.0 -1.0 2.0 5.0 4.0 0.0 -2.0 -2.0 1.0 1.0 1.0 1.0 -2.0 2.0 -2.0 1.0 1.0 1.0 1.0 -2.0 -2.0 -2.0 -2.0 2.0 -2.0 1.0 1.0 -7.0 -7.0 7.0 1.0 7.0 7.0 6.0 1.0 1.0 1.0 -2.0 -2.0 -2.0 -2.0 -2.0 -2.0 -2.0 -1.0 0.0 0.0 0.0 -1.0 -1.0 -1.0 -1.0 -8.0 7.0 1.0 -2.0 -2.0 -2.0 -2.0 -2.0 -2.0 1.0 1.0 1.0 -2.0 -2.0 -2.0 -2.0 -2.0 -2.0 -2.0 -2.0 -2.0 1.0 0.0 0.0 0.0 -1.0 -1.0 -1.0 -1.0 -1.0 -1.0 0.0 0.0 0.0 0.0 0.0 0.0 -1.0 -1.0 -1.0 -1.0 -1.0 -1.0 0.0 0.0 0.0 0.0 0.0 
# 16s start
-8.0 7.0 7.0 -8.0 -8.0 -8.0 -8.0 -1.0 -1.0 -1.0 -1.0 -1.0 0.0 0.0 0.0 -8.0 6.0 6.0 6.0 -8.0 7.0 7.0 -8.0 -8.0 -8.0 -8.0 2.0 7.0 6.0 -8.0 -8.0 -8.0 -8.0 7.0 7.0 7.0 7.0 7.0 7.0 7.0 7.0 -8.0 -6.0 6.0 6.0 6.0 -7.0 -7.0 -7.0 -7.0 6.0 -8.0 7.0 7.0 -8.0 -8.0 -8.0 -8.0 3.0 3.0 3.0 19.0 19.0 -20.0 -20.0 -20.0 -20.0 19.0 19.0 19.0 19.0 19.0 -20.0 -20.0 -1.0 -7.0 -7.0 -7.0 6.0 6.0 6.0 6.0 6.0 6.0 6.0 6.0 -7.0 -8.0 7.0 7.0 7.0 7.0 7.0 7.0 -7.0 -7.0 6.0 6.0 6.0 -7.0 -7.0 -7.0 -7.0 -7.0 -7.0 8.0 8.0 8.0 8.0 -8.0 -7.0 -8.0 12.0 10.0 13.0 13.0 13.0 -8.0 7.0 7.0 -8.0 -8.0 -8.0 -8.0 7.0 7.0 7.0 7.0 7.0 -8.0 -8.0 12.0 12.0 -12.0 -12.0 -12.0 12.0 1.0 1.0 1.0 -2.0 -2.0 -2.0 -2.0 -2.0 -2.0 -8.0 7.0 7.0 -8.0 -8.0 -8.0 -8.0 0.0 -1.0 -8.0 7.0 7.0 7.0 7.0 7.0 -8.0 -6.0 -6.0 5.0 5.0 5.0 5.0 5.0 5.0 5.0 5.0 -6.0 11.0 11.0 -12.0 -12.0 -12.0 -12.0 -12.0 -12.0 -1.0 -1.0 -1.0 -1.0 -1.0 -1.0 0.0 0.0 -8.0 -8.0 7.0 7.0 7.0 7.0 7.0 
# 16S stop
5.0 -6.0 -6.0 5.0 5.0 5.0 5.0 4.0 4.0 4.0 4.0 4.0 -5.0 -5.0 -5.0 5.0 -7.0 -7.0 -7.0 5.0 -6.0 -6.0 5.0 5.0 5.0 5.0 17.0 -7.0 -9.0 7.0 5.0 7.0 7.0 -6.0 -6.0 5.0 5.0 5.0 5.0 5.0 5.0 -6.0 -76.0 -2.0 -2.0 -2.0 1.0 1.0 -63.0 -63.0 62.0 5.0 -6.0 -6.0 5.0 5.0 5.0 5.0 -6.0 -6.0 -6.0 -39.0 -22.0 21.0 21.0 21.0 21.0 -22.0 -22.0 -22.0 -22.0 -22.0 21.0 21.0 4.0 5.0 5.0 5.0 -6.0 -6.0 -6.0 -6.0 -6.0 -6.0 -6.0 -6.0 5.0 5.0 -6.0 -6.0 -6.0 -6.0 -6.0 -6.0 5.0 5.0 -6.0 -6.0 -6.0 11.0 11.0 11.0 11.0 11.0 11.0 -10.0 -10.0 -10.0 -10.0 8.0 9.0 8.0 -4.0 -6.0 -3.0 -3.0 -3.0 5.0 -6.0 -6.0 5.0 5.0 5.0 5.0 -6.0 -6.0 -6.0 -6.0 -6.0 5.0 5.0 -10.0 -10.0 10.0 10.0 10.0 -10.0 5.0 5.0 5.0 -6.0 -6.0 -6.0 -6.0 -6.0 -6.0 17.0 -18.0 -16.0 17.0 17.0 17.0 17.0 -5.0 4.0 5.0 -6.0 -6.0 -6.0 -6.0 -6.0 5.0 -75.0 -75.0 74.0 74.0 74.0 74.0 74.0 74.0 74.0 74.0 -75.0 -16.0 -16.0 15.0 15.0 15.0 15.0 15.0 15.0 0.0 0.0 0.0 0.0 0.0 0.0 -1.0 -1.0 17.0 17.0 -18.0 -18.0 -18.0 -18.0 -18.0 
# 23s start
-3.0 2.0 2.0 -3.0 -3.0 -3.0 -3.0 -3.0 -3.0 -3.0 -3.0 -3.0 2.0 2.0 2.0 -3.0 1.0 1.0 1.0 -3.0 2.0 2.0 -3.0 -3.0 -3.0 -3.0 7.0 2.0 1.0 -3.0 -3.0 -3.0 -3.0 2.0 2.0 -3.0 -3.0 -3.0 -3.0 -3.0 -3.0 2.0 -3.0 -3.0 -3.0 2.0 2.0 9.0 9.0 -10.0 -3.0 2.0 2.0 -3.0 -3.0 -3.0 -3.0 -19.0 -19.0 -19.0 -3.0 -3.0 2.0 2.0 2.0 2.0 -3.0 -3.0 -3.0 -3.0 -3.0 2.0 2.0 2.0 -3.0 -3.0 -3.0 2.0 2.0 2.0 2.0 2.0 2.0 2.0 2.0 -3.0 -3.0 2.0 2.0 2.0 2.0 2.0 2.0 -3.0 -3.0 2.0 2.0 2.0 -2.0 -2.0 -2.0 -2.0 -2.0 -2.0 3.0 3.0 3.0 3.0 -2.0 -2.0 -3.0 7.0 5.0 8.0 8.0 8.0 -3.0 2.0 2.0 -3.0 -3.0 -3.0 -3.0 2.0 2.0 2.0 2.0 2.0 -3.0 -3.0 6.0 6.0 -7.0 -7.0 -7.0 6.0 -3.0 -3.0 -3.0 2.0 2.0 2.0 2.0 2.0 2.0 -3.0 2.0 2.0 -3.0 -3.0 -3.0 -3.0 2.0 -3.0 -3.0 2.0 2.0 2.0 2.0 2.0 -3.0 -3.0 -3.0 2.0 2.0 2.0 2.0 2.0 2.0 2.0 2.0 -3.0 2.0 2.0 -3.0 -3.0 -3.0 -3.0 -3.0 -3.0 -1.0 -1.0 -1.0 -1.0 -1.0 -1.0 0.0 0.0 -3.0 -3.0 2.0 2.0 2.0 2.0 2.0 
# 23S stop
0.0 -1.0 -1.0 0.0 0.0 0.0 0.0 0.0 0.0 0.0 0.0 0.0 -1.0 -1.0 -1.0 0.0 -2.0 -2.0 -2.0 0.0 -1.0 -1.0 0.0 0.0 0.0 0.0 12.0 -3.0 -4.0 2.0 3.0 2.0 2.0 -1.0 -1.0 9.0 9.0 9.0 9.0 9.0 9.0 -10.0 9.0 9.0 9.0 -10.0 -10.0 21.0 21.0 -22.0 0.0 -1.0 -1.0 0.0 0.0 0.0 0.0 3.0 3.0 3.0 0.0 0.0 -1.0 -1.0 -1.0 -1.0 0.0 0.0 0.0 0.0 0.0 -1.0 -1.0 -1.0 0.0 0.0 0.0 -1.0 -1.0 -1.0 -1.0 -1.0 -1.0 -1.0 -1.0 0.0 0.0 -1.0 -1.0 -1.0 -1.0 -1.0 -1.0 9.0 9.0 -10.0 -10.0 -10.0 1.0 1.0 1.0 1.0 1.0 1.0 0.0 0.0 0.0 0.0 3.0 3.0 2.0 2.0 0.0 3.0 3.0 3.0 0.0 -1.0 -1.0 0.0 0.0 0.0 0.0 -1.0 -1.0 -1.0 -1.0 -1.0 0.0 0.0 1.0 1.0 -2.0 -2.0 -2.0 1.0 0.0 0.0 0.0 -1.0 -1.0 -1.0 -1.0 -1.0 -1.0 2.0 -3.0 -3.0 2.0 2.0 2.0 2.0 -11.0 10.0 0.0 -1.0 -1.0 -1.0 -1.0 -1.0 0.0 0.0 0.0 -1.0 -1.0 -1.0 -1.0 -1.0 -1.0 -1.0 -1.0 0.0 -3.0 -3.0 2.0 2.0 2.0 2.0 2.0 2.0 0.0 0.0 0.0 0.0 0.0 0.0 -1.0 -1.0 2.0 2.0 -3.0 -3.0 -3.0 -3.0 -3.0 